.............
----------------------------------------------------------------------
Ran 13 tests in 0.000s

OK
Name               Stmts   Miss Branch BrPart  Cover   Missing
--------------------------------------------------------------
Diplomacy.py          68      0     38      0   100%
TestDiplomacy.py      66      0      0      0   100%
--------------------------------------------------------------
TOTAL                134      0     38      0   100%
