......................
----------------------------------------------------------------------
Ran 22 tests in 0.002s

OK
Name               Stmts   Miss Branch BrPart  Cover   Missing
--------------------------------------------------------------
Diplomacy.py         100      0     72      0   100%
TestDiplomacy.py      85      0      0      0   100%
--------------------------------------------------------------
TOTAL                185      0     72      0   100%
